%YAML 1.1
%TAG !u! tag:unity3d.com,2011:
--- !u!114 &11400000
MonoBehaviour:
  m_ObjectHideFlags: 0
  m_PrefabParentObject: {fileID: 0}
  m_PrefabInternal: {fileID: 0}
  m_GameObject: {fileID: 0}
  m_Enabled: 1
  m_EditorHideFlags: 0
  m_Script: {fileID: 11500000, guid: 43d02bf482c26a54b8ec7ac61d0f7541, type: 3}
  m_Name: Endless Mode Spawn Rates
  m_EditorClassIdentifier: 
  weights:
  - type: 1
    rangeMin: 0
    rangeMax: 40
  - type: 3
    rangeMin: 41
    rangeMax: 56
  - type: 5
    rangeMin: 57
    rangeMax: 67
  - type: 6
    rangeMin: 68
    rangeMax: 78
  - type: 4
    rangeMin: 79
    rangeMax: 84
  - type: 0
    rangeMin: 85
    rangeMax: 94
  - type: 2
    rangeMin: 95
    rangeMax: 100
