%YAML 1.1
%TAG !u! tag:unity3d.com,2011:
--- !u!114 &11400000
MonoBehaviour:
  m_ObjectHideFlags: 0
  m_PrefabParentObject: {fileID: 0}
  m_PrefabInternal: {fileID: 0}
  m_GameObject: {fileID: 0}
  m_Enabled: 1
  m_EditorHideFlags: 0
  m_Script: {fileID: 11500000, guid: 0ffc23414620c6847a25f4db33c81e93, type: 3}
  m_Name: AOE Damage
  m_EditorClassIdentifier: 
  type: 2
  towerColor: {r: 1, g: 0, b: 0, a: 1}
  description: Tower able to inflict damage to all enemies who enter its area.
  canBurn: 0
  canChill: 0
  canFreeze: 0
  canPoison: 0
  canTargetAir: 1
  baseSpeed: .5
  baseDamage: 1
  baseHealth: 100
  baseCost: 900
  baseBurnChance: 0
  baseBurnDuration: 0
  baseBurnDamage: 0
  baseFreezeChance: 0
  baseFreezeDuration: 0
  baseChillChance: 0
  baseChillDuration: 0
  baseChillSlow: 0
  basePoisonChance: 0
  basePoisonDuration: 0
  basePoisonDamage: 0
  upgradeSpeed: -.0250000004
  upgradeDamage: .5
  upgradeHealth: 0
  upgradeCost: 0
  upgradeBurnChance: 0
  upgradeBurnDuration: 0
  upgradeBurnDamage: 0
  upgradeFreezeChance: 0
  upgradeFreezeDuration: 0
  upgradeChillChance: 0
  upgradeChillDuration: 0
  upgradeChillSlow: 0
  upgradePoisonChance: 0
  upgradePoisonDuration: 0
  upgradePoisonDamage: 0
