%YAML 1.1
%TAG !u! tag:unity3d.com,2011:
--- !u!114 &11400000
MonoBehaviour:
  m_ObjectHideFlags: 0
  m_PrefabParentObject: {fileID: 0}
  m_PrefabInternal: {fileID: 0}
  m_GameObject: {fileID: 0}
  m_Enabled: 1
  m_EditorHideFlags: 0
  m_Script: {fileID: 11500000, guid: 0ffc23414620c6847a25f4db33c81e93, type: 3}
  m_Name: Bolt Ice
  m_EditorClassIdentifier: 
  type: 10
  towerColor: {r: .485294104, g: .82961452, b: 1, a: 1}
  description: Fires an ice bolt at a single target that freezes them in place for
    a few seconds.
  canBurn: 0
  canChill: 0
  canFreeze: 1
  canPoison: 0
  canTargetAir: 1
  baseSpeed: 10
  baseDamage: 0
  baseHealth: 100
  baseCost: 600
  baseBurnChance: 0
  baseBurnDuration: 0
  baseBurnDamage: 0
  baseFreezeChance: 100
  baseFreezeDuration: 1
  baseChillChance: 0
  baseChillDuration: 0
  baseChillSlow: 0
  basePoisonChance: 0
  basePoisonDuration: 0
  basePoisonDamage: 0
  upgradeSpeed: -.5
  upgradeDamage: 0
  upgradeHealth: 0
  upgradeCost: 0
  upgradeBurnChance: 0
  upgradeBurnDuration: 0
  upgradeBurnDamage: 0
  upgradeFreezeChance: 0
  upgradeFreezeDuration: 1
  upgradeChillChance: 0
  upgradeChillDuration: 0
  upgradeChillSlow: 0
  upgradePoisonChance: 0
  upgradePoisonDuration: 0
  upgradePoisonDamage: 0
