%YAML 1.1
%TAG !u! tag:unity3d.com,2011:
--- !u!114 &11400000
MonoBehaviour:
  m_ObjectHideFlags: 0
  m_PrefabParentObject: {fileID: 0}
  m_PrefabInternal: {fileID: 0}
  m_GameObject: {fileID: 0}
  m_Enabled: 1
  m_EditorHideFlags: 0
  m_Script: {fileID: 11500000, guid: 0ffc23414620c6847a25f4db33c81e93, type: 3}
  m_Name: Laser
  m_EditorClassIdentifier: 
  type: 8
  towerColor: {r: .33088237, g: .33088237, b: .33088237, a: 1}
  description: Medium range tower that shoots low damage laser blasts really fast.
  canBurn: 1
  canChill: 0
  canFreeze: 0
  canPoison: 0
  canTargetAir: 1
  baseSpeed: .25
  baseDamage: .5
  baseHealth: 100
  baseCost: 950
  baseBurnChance: 30
  baseBurnDuration: 10
  baseBurnDamage: 1
  baseFreezeChance: 0
  baseFreezeDuration: 0
  baseChillChance: 0
  baseChillDuration: 0
  baseChillSlow: 0
  basePoisonChance: 0
  basePoisonDuration: 0
  basePoisonDamage: 0
  upgradeSpeed: 0
  upgradeDamage: .5
  upgradeHealth: 0
  upgradeCost: 0
  upgradeBurnChance: 0
  upgradeBurnDuration: 1
  upgradeBurnDamage: 1
  upgradeFreezeChance: 0
  upgradeFreezeDuration: 0
  upgradeChillChance: 0
  upgradeChillDuration: 0
  upgradeChillSlow: 0
  upgradePoisonChance: 0
  upgradePoisonDuration: 0
  upgradePoisonDamage: 0
