%YAML 1.1
%TAG !u! tag:unity3d.com,2011:
--- !u!114 &11400000
MonoBehaviour:
  m_ObjectHideFlags: 0
  m_PrefabParentObject: {fileID: 0}
  m_PrefabInternal: {fileID: 0}
  m_GameObject: {fileID: 0}
  m_Enabled: 1
  m_EditorHideFlags: 0
  m_Script: {fileID: 11500000, guid: 699ceac8f5de2b64fbea4d13907625ef, type: 3}
  m_Name: Tutorial Player Kill
  m_EditorClassIdentifier: 
  lines:
  - line: Thats it! A few more and we will have this place cleaned up in no time.
    hasAnimation: 0
    animationName: 
    hasVoiceOver: 0
    voiceOverClip: {fileID: 0}
    voiceOverVolume: 0
    firesEvent: 0
    eventName: 
    eventDelay: 0
    actor: {fileID: 11400000, guid: 828af60c4bd602e42ae31550dd004bc9, type: 2}
  - line: 'As you use your weapons, you will gain experience with them.

      After you gain enough, they will level up and deal more damage.'
    hasAnimation: 0
    animationName: 
    hasVoiceOver: 0
    voiceOverClip: {fileID: 0}
    voiceOverVolume: 0
    firesEvent: 0
    eventName: 
    eventDelay: 0
    actor: {fileID: 11400000, guid: 828af60c4bd602e42ae31550dd004bc9, type: 2}
  - line: You can choose to use only one weapon but you won't gain experience with
      the others.
    hasAnimation: 0
    animationName: 
    hasVoiceOver: 0
    voiceOverClip: {fileID: 0}
    voiceOverVolume: 0
    firesEvent: 0
    eventName: 
    eventDelay: 0
    actor: {fileID: 11400000, guid: 828af60c4bd602e42ae31550dd004bc9, type: 2}
  - line: 'Your towers will also gain experience as they get used.

      Each tower keeps its own experience and levels.'
    hasAnimation: 0
    animationName: 
    hasVoiceOver: 0
    voiceOverClip: {fileID: 0}
    voiceOverVolume: 0
    firesEvent: 0
    eventName: 
    eventDelay: 0
    actor: {fileID: 11400000, guid: 828af60c4bd602e42ae31550dd004bc9, type: 2}
  - line: Walk up to a tower and press [E] to view the stats of the tower including
      its damage and attack speed.
    hasAnimation: 0
    animationName: 
    hasVoiceOver: 0
    voiceOverClip: {fileID: 0}
    voiceOverVolume: 0
    firesEvent: 0
    eventName: 
    eventDelay: 0
    actor: {fileID: 11400000, guid: 828af60c4bd602e42ae31550dd004bc9, type: 2}
