%YAML 1.1
%TAG !u! tag:unity3d.com,2011:
--- !u!114 &11400000
MonoBehaviour:
  m_ObjectHideFlags: 0
  m_PrefabParentObject: {fileID: 0}
  m_PrefabInternal: {fileID: 0}
  m_GameObject: {fileID: 0}
  m_Enabled: 1
  m_EditorHideFlags: 0
  m_Script: {fileID: 11500000, guid: 699ceac8f5de2b64fbea4d13907625ef, type: 3}
  m_Name: Tutorial Pick Up Ammo
  m_EditorClassIdentifier: 
  lines:
  - line: 'Oh yeah, I almost forgot the witch has some kind of shield that is blocking
      thrown items from going through it.

      Speaking of which you can press [Left Mouse Button] to use your currently equipped
      weapon.'
    hasAnimation: 0
    animationName: 
    hasVoiceOver: 0
    voiceOverClip: {fileID: 0}
    voiceOverVolume: 0
    firesEvent: 0
    eventName: 
    eventDelay: 0
    actor: {fileID: 11400000, guid: 828af60c4bd602e42ae31550dd004bc9, type: 2}
  - line: With a bit more force I think we could punch through it.
    hasAnimation: 0
    animationName: 
    hasVoiceOver: 0
    voiceOverClip: {fileID: 0}
    voiceOverVolume: 0
    firesEvent: 0
    eventName: 
    eventDelay: 0
    actor: {fileID: 11400000, guid: 828af60c4bd602e42ae31550dd004bc9, type: 2}
  - line: I have an idea, here is some coins.\nUse them to build a tower over near
      those boxes.\nLets see if that has enough power.
    hasAnimation: 0
    animationName: 
    hasVoiceOver: 0
    voiceOverClip: {fileID: 0}
    voiceOverVolume: 0
    firesEvent: 0
    eventName: 
    eventDelay: 0
    actor: {fileID: 11400000, guid: 828af60c4bd602e42ae31550dd004bc9, type: 2}
  - line: 'Speaking of which, its not open right now but you can use the coins you
      find in the shop to buy more ammo and some upgrades.

      Press [R] or [ESCAPE] to bring up the menu then click Shop.'
    hasAnimation: 0
    animationName: 
    hasVoiceOver: 0
    voiceOverClip: {fileID: 0}
    voiceOverVolume: 0
    firesEvent: 0
    eventName: 
    eventDelay: 0
    actor: {fileID: 11400000, guid: 828af60c4bd602e42ae31550dd004bc9, type: 2}
  - line: 'You can even buy the most powerful weapon we have from the shop.

      The Santa Bomber will deal massive damage to any enemy on the screen.

      But they are very expensive so use them wisely.'
    hasAnimation: 0
    animationName: 
    hasVoiceOver: 0
    voiceOverClip: {fileID: 0}
    voiceOverVolume: 0
    firesEvent: 0
    eventName: 
    eventDelay: 0
    actor: {fileID: 11400000, guid: 828af60c4bd602e42ae31550dd004bc9, type: 2}
